…
## Step 3: Examine Data

It's a good practice to take a look and get afeel of the data by examining it. I find two methods to be the most useful:
* Method 1: Printing it to the console
* Method 2: Running `glimpse()` function - helpful for wide data (data with many columns)

**Method 1**
```{r}
orderlines_tbl
# A tibble: 15,644 x 7
##    ...1  order.id order.line order.date          customer.id product.id quantity
##    <chr>    <dbl>      <dbl> <dttm>                    <dbl>      <dbl>    <dbl>
##  1 1            1          1 2015-01-07 00:00:00           2       2681        1
##  2 2            1          2 2015-01-07 00:00:00           2       2411        1
##  3 3            2          1 2015-01-10 00:00:00          10       2629        1
##  4 4            2          2 2015-01-10 00:00:00          10       2137        1
##  5 5            3          1 2015-01-10 00:00:00           6       2367        1
## # … with 15,639 more rows
```
…
  # Grouping by state and year and summarizing sales
  group_by(state, year) %>% 
  summarize(sales = sum(total_price)) %>%
  arrange(year) %>% 
  ungroup() %>%
  
  # Format $ Text
  mutate(sales_text = scales::dollar(sales, big.mark = ".", 
                                     decimal.mark = ",", 
                                     prefix = "", 
                                     suffix = " €"))

sales_by_loc_year_tbl
# A tibble: 60 x 4
##   state                          year   sales sales_text 
##   <chr>                         <dbl>   <dbl> <chr>      
## 1 Baden-Württemberg              2015 1031924 1.031.924 €
## 2 Bavaria                        2015 1301461 1.301.461 €
## 3 Berlin                         2015   95853 95.853 €   
## 4 Bremen                         2015 1395912 1.395.912 €
## 5 Hamburg                        2015  423090 423.090 €  
## 6 Hesse                          2015  308609 308.609 €  
## 7 Lower Saxony                   2015  584386 584.386 €  
## 8 Mecklenburg-Western Pomerania  2015  222003 222.003 €  
## 9 North Rhine-Westphalia         2015 3735092 3.735.092 €
##10 Saxony                         2015  238371 238.371 €  
# … with 50 more rows
```
…
